final/watchController/WatchCtrl.vcd
$date
	Fri Jun 12 22:55:29 2015
$end
$version
	Icarus Verilog
$end
$timescale
	1s
$end
$scope module WatchCtrl_test $end
$var wire 1 ! alarmBeep $end
$var wire 7 " digit0 [6:0] $end
$var wire 7 # digit1 [6:0] $end
$var wire 7 $ digit2 [6:0] $end
$var wire 7 % digit3 [6:0] $end
$var reg 1 & clk $end
$var reg 1 ' modeAlarm $end
$var reg 1 ( modeClock $end
$var reg 1 ) modeStopWatch $end
$var reg 1 * nextDigit $end
$var reg 1 + resetTime $end
$var reg 1 , setValue $end
$var reg 1 - stop $end
$var reg 1 . upTime $end
$scope module uut $end
$var wire 1 ! alarmBeep $end
$var wire 1 / clk $end
$var wire 7 0 digit0 [6:0] $end
$var wire 7 1 digit1 [6:0] $end
$var wire 7 2 digit2 [6:0] $end
$var wire 7 3 digit3 [6:0] $end
$var wire 4 4 hour0 [3:0] $end
$var wire 4 5 hour1 [3:0] $end
$var wire 4 6 min0 [3:0] $end
$var wire 4 7 min1 [3:0] $end
$var wire 1 8 modeAlarm $end
$var wire 1 9 modeClock $end
$var wire 1 : modeStopWatch $end
$var wire 1 ; nextDigit $end
$var wire 1 < resetTime $end
$var wire 1 = setValue $end
$var wire 1 > stop $end
$var wire 1 ? upTime $end
$scope module timeset $end
$var wire 1 ; nextDigit $end
$var wire 1 < reset $end
$var wire 1 = start $end
$var wire 1 ? up $end
$var reg 1 @ changeTime $end
$var reg 2 A currNum [1:0] $end
$var reg 4 B h0 [3:0] $end
$var reg 4 C h1 [3:0] $end
$var reg 4 D m0 [3:0] $end
$var reg 4 E m1 [3:0] $end
$upscope $end
$scope module beep $end
$var wire 1 < alarmReset $end
$var wire 1 = alarmSet $end
$var wire 1 / clk $end
$var wire 4 F curHour0 [3:0] $end
$var wire 4 G curHour1 [3:0] $end
$var wire 4 H curMin0 [3:0] $end
$var wire 4 I curMin1 [3:0] $end
$var reg 1 J alarm $end
$var reg 4 K savHour0 [3:0] $end
$var reg 4 L savHour1 [3:0] $end
$var reg 4 M savMin0 [3:0] $end
$var reg 4 N savMin1 [3:0] $end
$upscope $end
$scope module first $end
$var wire 4 O number [3:0] $end
$var reg 1 P A $end
$var reg 1 Q B $end
$var reg 1 R C $end
$var reg 1 S D $end
$var reg 1 T E $end
$var reg 1 U F $end
$var reg 1 V G $end
$upscope $end
$scope module second $end
$var wire 4 W number [3:0] $end
$var reg 1 X A $end
$var reg 1 Y B $end
$var reg 1 Z C $end
$var reg 1 [ D $end
$var reg 1 \ E $end
$var reg 1 ] F $end
$var reg 1 ^ G $end
$upscope $end
$scope module third $end
$var wire 4 _ number [3:0] $end
$var reg 1 ` A $end
$var reg 1 a B $end
$var reg 1 b C $end
$var reg 1 c D $end
$var reg 1 d E $end
$var reg 1 e F $end
$var reg 1 f G $end
$upscope $end
$scope module fourth $end
$var wire 4 g number [3:0] $end
$var reg 1 h A $end
$var reg 1 i B $end
$var reg 1 j C $end
$var reg 1 k D $end
$var reg 1 l E $end
$var reg 1 m F $end
$var reg 1 n G $end
$upscope $end
$upscope $end
$upscope $end
$enddefinitions $end
#0
$dumpvars
0n
1m
1l
1k
1j
1i
1h
b0 g
0f
1e
1d
1c
1b
1a
1`
b0 _
0^
1]
1\
1[
1Z
1Y
1X
b0 W
0V
1U
1T
1S
1R
1Q
1P
b0 O
bx N
bx M
bx L
bx K
0J
b0 I
b0 H
b0 G
b0 F
b0 E
b0 D
b0 C
b0 B
b0 A
0@
0?
x>
0=
1<
x;
x:
x9
x8
b0 7
b0 6
b0 5
b0 4
b111111 3
b111111 2
b111111 1
b111111 0
0/
0.
x-
0,
1+
x*
x)
x(
x'
0&
b111111 %
b111111 $
b111111 #
b111111 "
0!
$end
#1
b0 L
b0 K
b0 N
b0 M
1&
1/
#2
0&
0/
#3
1&
1/
#4
0&
0/
#5
1&
1/
#6
0&
0/
#7
1&
1/
#8
0&
0/
#9
1&
1/
#10
0&
0/
#11
1&
1/
#12
0&
0/
#13
1&
1/
#14
0&
0/
#15
1&
1/
#16
0&
0/
#17
1&
1/
#18
0&
0/
#19
1&
1/
#20
0&
0/
#21
1&
1/
#22
0&
0/
#23
1&
1/
#24
0&
0/
#25
1&
1/
#26
0&
0/
#27
1&
1/
#28
0&
0/
#29
1&
1/
#30
0&
0/
#31
1&
1/
#32
0&
0/
#33
1&
1/
#34
0&
0/
#35
1&
1/
#36
0&
0/
#37
1&
1/
#38
0&
0/
#39
1&
1/
#40
0&
0/
#41
1&
1/
#42
0&
0/
#43
1&
1/
#44
0&
0/
#45
1&
1/
#46
0&
0/
#47
1&
1/
#48
0&
0/
#49
1&
1/
#50
0&
0/
#51
1&
1/
#52
0&
0/
#53
1&
1/
#54
0&
0/
#55
1&
1/
#56
0&
0/
#57
1&
1/
#58
0&
0/
#59
1&
1/
#60
0&
0/
#61
1&
1/
#62
0&
0/
#63
1&
1/
#64
0&
0/
#65
1&
1/
#66
0&
0/
#67
1&
1/
#68
0&
0/
#69
1&
1/
#70
0&
0/
#71
1&
1/
#72
0&
0/
#73
1&
1/
#74
0&
0/
#75
1&
1/
#76
0&
0/
#77
1&
1/
#78
0&
0/
#79
1&
1/
#80
0&
0/
#81
1&
1/
#82
0&
0/
#83
1&
1/
#84
0&
0/
#85
1&
1/
#86
0&
0/
#87
1&
1/
#88
0&
0/
#89
1&
1/
#90
0&
0/
#91
1&
1/
#92
0&
0/
#93
1&
1/
#94
0&
0/
#95
1&
1/
#96
0&
0/
#97
1&
1/
#98
0&
0/
#99
1&
1/
#100
0+
0<
0&
0/
#101
1&
1/
#102
0&
0/
#103
1&
1/
#104
0&
0/
#105
1&
1/
#106
0&
0/
#107
1&
1/
#108
0&
0/
#109
1&
1/
#110
0&
0/
1.
1?
#111
1&
1/
#112
0&
0/
#113
1&
1/
#114
0&
0/
#115
1&
1/
#116
0&
0/
#117
1&
1/
#118
0&
0/
#119
1&
1/
#120
0&
0/
#121
1&
1/
#122
0&
0/
#123
1&
1/
#124
0&
0/
#125
1&
1/
#126
0&
0/
#127
1&
1/
#128
0&
0/
#129
1&
1/
#130
0&
0/
0.
0?
#131
1&
1/
#132
0&
0/
#133
1&
1/
#134
0&
0/
#135
1&
1/
#136
0&
0/
#137
1&
1/
#138
0&
0/
#139
1&
1/
#140
0&
0/
1.
1?
#141
1&
1/
#142
0&
0/
#143
1&
1/
#144
0&
0/
#145
1&
1/
#146
0&
0/
#147
1&
1/
#148
0&
0/
#149
1&
1/
#150
0&
0/
0.
0?
#151
1&
1/
#152
0&
0/
#153
1&
1/
#154
0&
0/
#155
1&
1/
#156
0&
0/
#157
1&
1/
#158
0&
0/
#159
1&
1/
#160
0&
0/
1.
1?
#161
1&
1/
#162
0&
0/
#163
1&
1/
#164
0&
0/
#165
1&
1/
#166
0&
0/
#167
1&
1/
#168
0&
0/
#169
1&
1/
#170
0&
0/
0.
0?
#171
1&
1/
#172
0&
0/
#173
1&
1/
#174
0&
0/
#175
1&
1/
#176
0&
0/
#177
1&
1/
#178
0&
0/
#179
1&
1/
#180
0&
0/
1.
1?
#181
1&
1/
#182
0&
0/
#183
1&
1/
#184
0&
0/
#185
1&
1/
#186
0&
0/
#187
1&
1/
#188
0&
0/
#189
1&
1/
#190
0&
0/
0.
0?
#191
1&
1/
#192
0&
0/
#193
1&
1/
#194
0&
0/
#195
1&
1/
#196
0&
0/
#197
1&
1/
#198
0&
0/
#199
1&
1/
#200
0&
0/
1.
1?
#201
1&
1/
#202
0&
0/
#203
1&
1/
#204
0&
0/
#205
1&
1/
#206
0&
0/
#207
1&
1/
#208
0&
0/
#209
1&
1/
#210
0&
0/
0.
0?
#211
1&
1/
#212
0&
0/
#213
1&
1/
#214
0&
0/
#215
1&
1/
#216
0&
0/
#217
1&
1/
#218
0&
0/
#219
1&
1/
#220
0&
0/
#221
1&
1/
#222
0&
0/
#223
1&
1/
#224
0&
0/
#225
1&
1/
#226
0&
0/
#227
1&
1/
#228
0&
0/
#229
1&
1/
#230
0&
0/
1.
1?
#231
1&
1/
#232
0&
0/
#233
1&
1/
#234
0&
0/
#235
1&
1/
#236
0&
0/
#237
1&
1/
#238
0&
0/
#239
1&
1/
#240
0&
0/
0.
0?
#241
1&
1/
#242
0&
0/
#243
1&
1/
#244
0&
0/
#245
1&
1/
#246
0&
0/
#247
1&
1/
#248
0&
0/
#249
1&
1/
#250
0&
0/
1.
1?
#251
1&
1/
#252
0&
0/
#253
1&
1/
#254
0&
0/
#255
1&
1/
#256
0&
0/
#257
1&
1/
#258
0&
0/
#259
1&
1/
#260
0&
0/
0.
0?
#261
1&
1/
#262
0&
0/
#263
1&
1/
#264
0&
0/
#265
1&
1/
#266
0&
0/
#267
1&
1/
#268
0&
0/
#269
1&
1/
#270
0&
0/
1.
1?
#271
1&
1/
#272
0&
0/
#273
1&
1/
#274
0&
0/
#275
1&
1/
#276
0&
0/
#277
1&
1/
#278
0&
0/
#279
1&
1/
#280
0&
0/
0.
0?
#281
1&
1/
#282
0&
0/
#283
1&
1/
#284
0&
0/
#285
1&
1/
#286
0&
0/
#287
1&
1/
#288
0&
0/
#289
1&
1/
#290
0&
0/
1.
1?
#291
1&
1/
#292
0&
0/
#293
1&
1/
#294
0&
0/
#295
1&
1/
#296
0&
0/
#297
1&
1/
#298
0&
0/
#299
1&
1/
#300
0&
0/
0.
0?
#301
1&
1/
#302
0&
0/
#303
1&
1/
#304
0&
0/
#305
1&
1/
#306
0&
0/
#307
1&
1/
#308
0&
0/
#309
1&
1/
#310
b1 A
0&
0/
1*
1;
#311
1&
1/
#312
0&
0/
#313
1&
1/
#314
0&
0/
#315
1&
1/
#316
0&
0/
#317
1&
1/
#318
0&
0/
#319
1&
1/
#320
0&
0/
0*
0;
#321
1&
1/
#322
0&
0/
#323
1&
1/
#324
0&
0/
#325
1&
1/
#326
0&
0/
#327
1&
1/
#328
0&
0/
#329
1&
1/
#330
0&
0/
#331
1&
1/
#332
0&
0/
#333
1&
1/
#334
0&
0/
#335
1&
1/
#336
0&
0/
#337
1&
1/
#338
0&
0/
#339
1&
1/
#340
0&
0/
#341
1&
1/
#342
0&
0/
#343
1&
1/
#344
0&
0/
#345
1&
1/
#346
0&
0/
#347
1&
1/
#348
0&
0/
#349
1&
1/
#350
1@
0&
0/
1,
1=
#351
1&
1/
#352
0&
0/
#353
1&
1/
#354
0&
0/
#355
1&
1/
#356
0&
0/
#357
1&
1/
#358
0&
0/
#359
1&
1/
#360
0&
0/
0,
0=
#361
1&
1/
#362
0&
0/
#363
1&
1/
#364
0&
0/
#365
1&
1/
#366
0&
0/
#367
1&
1/
#368
0&
0/
#369
1&
1/
#370
0]
0\
0[
0X
b110 #
b110 1
b1 E
b1 7
b1 I
b1 W
0&
0/
1.
1?
#371
1&
1/
#372
0&
0/
#373
1&
1/
#374
0&
0/
#375
1&
1/
#376
0&
0/
#377
1&
1/
#378
0&
0/
#379
1&
1/
#380
0&
0/
#381
1&
1/
#382
0&
0/
#383
1&
1/
#384
0&
0/
#385
1&
1/
#386
0&
0/
#387
1&
1/
#388
0&
0/
#389
1&
1/
#390
0&
0/
0.
0?
#391
1&
1/
#392
0&
0/
#393
1&
1/
#394
0&
0/
#395
1&
1/
#396
0&
0/
#397
1&
1/
#398
0&
0/
#399
1&
1/
#400
1\
1[
0Z
1X
b11011 #
b11011 1
b10 E
b10 7
b10 I
b10 W
0&
0/
1.
1?
#401
1&
1/
#402
0&
0/
#403
1&
1/
#404
0&
0/
#405
1&
1/
#406
0&
0/
#407
1&
1/
#408
0&
0/
#409
1&
1/
#410
0&
0/
0.
0?
#411
1&
1/
#412
0&
0/
#413
1&
1/
#414
0&
0/
#415
1&
1/
#416
0&
0/
#417
1&
1/
#418
0&
0/
#419
1&
1/
#420
0\
1Z
b1111 #
b1111 1
b11 E
b11 7
b11 I
b11 W
0&
0/
1.
1?
#421
1&
1/
#422
0&
0/
#423
1&
1/
#424
0&
0/
#425
1&
1/
#426
0&
0/
#427
1&
1/
#428
0&
0/
#429
1&
1/
#430
0&
0/
0.
0?
#431
1&
1/
#432
0&
0/
#433
1&
1/
#434
0&
0/
#435
1&
1/
#436
0&
0/
#437
1&
1/
#438
0&
0/
#439
1&
1/
#440
1^
1]
0[
0X
b1100110 #
b1100110 1
b100 E
b100 7
b100 I
b100 W
0&
0/
1.
1?
#441
1&
1/
#442
0&
0/
#443
1&
1/
#444
0&
0/
#445
1&
1/
#446
0&
0/
#447
1&
1/
#448
0&
0/
#449
1&
1/
#450
0&
0/
0.
0?
#451
1&
1/
#452
0&
0/
#453
1&
1/
#454
0&
0/
#455
1&
1/
#456
0&
0/
#457
1&
1/
#458
0&
0/
#459
1&
1/
#460
1[
0Y
1X
b1101101 #
b1101101 1
b101 E
b101 7
b101 I
b101 W
0&
0/
1.
1?
#461
1&
1/
#462
0&
0/
#463
1&
1/
#464
0&
0/
#465
1&
1/
#466
0&
0/
#467
1&
1/
#468
0&
0/
#469
1&
1/
#470
0&
0/
0.
0?
#471
1&
1/
#472
0&
0/
#473
1&
1/
#474
0&
0/
#475
1&
1/
#476
0&
0/
#477
1&
1/
#478
0&
0/
#479
1&
1/
#480
0&
0/
#481
1&
1/
#482
0&
0/
#483
1&
1/
#484
0&
0/
#485
1&
1/
#486
0&
0/
#487
1&
1/
#488
0&
0/
#489
1&
1/
#490
0^
1\
1Y
b111111 #
b111111 1
b0 E
b0 7
b0 I
b0 W
0&
0/
1.
1?
#491
1&
1/
#492
0&
0/
#493
1&
1/
#494
0&
0/
#495
1&
1/
#496
0&
0/
#497
1&
1/
#498
0&
0/
#499
1&
1/
#500
0&
0/
0.
0?
#501
1&
1/
#502
0&
0/
#503
1&
1/
#504
0&
0/
#505
1&
1/
#506
0&
0/
#507
1&
1/
#508
0&
0/
#509
1&
1/
#510
0]
0\
0[
0X
b110 #
b110 1
b1 E
b1 7
b1 I
b1 W
0&
0/
1.
1?
#511
1&
1/
#512
0&
0/
#513
1&
1/
#514
0&
0/
#515
1&
1/
#516
0&
0/
#517
1&
1/
#518
0&
0/
#519
1&
1/
#520
0&
0/
0.
0?
