verilog/latch/wave.vcd
$date
	Mon May  4 18:46:16 2015
$end
$version
	Icarus Verilog
$end
$timescale
	1s
$end
$scope module shiftRgtest $end
$var wire 3 ! out [2:0] $end
$var reg 1 " Data $end
$var reg 1 # clk $end
$scope module uut $end
$var wire 1 $ Data $end
$var wire 3 % Result [2:0] $end
$var wire 1 & clk $end
$scope module D1 $end
$var wire 1 ' Q $end
$var wire 1 ( _Q $end
$var wire 1 ) _q $end
$var wire 1 & clk $end
$var wire 1 $ data $end
$var wire 1 * q $end
$scope module DL1 $end
$var wire 1 $ data $end
$var wire 1 & en $end
$var reg 1 + _q $end
$var reg 1 , q $end
$upscope $end
$scope module DL2 $end
$var wire 1 * data $end
$var wire 1 - en $end
$var reg 1 . _q $end
$var reg 1 / q $end
$upscope $end
$upscope $end
$scope module D2 $end
$var wire 1 0 Q $end
$var wire 1 1 _Q $end
$var wire 1 2 _q $end
$var wire 1 & clk $end
$var wire 1 3 data $end
$var wire 1 4 q $end
$scope module DL1 $end
$var wire 1 3 data $end
$var wire 1 & en $end
$var reg 1 5 _q $end
$var reg 1 6 q $end
$upscope $end
$scope module DL2 $end
$var wire 1 4 data $end
$var wire 1 7 en $end
$var reg 1 8 _q $end
$var reg 1 9 q $end
$upscope $end
$upscope $end
$scope module D3 $end
$var wire 1 : Q $end
$var wire 1 ; _Q $end
$var wire 1 < _q $end
$var wire 1 & clk $end
$var wire 1 = data $end
$var wire 1 > q $end
$scope module DL1 $end
$var wire 1 = data $end
$var wire 1 & en $end
$var reg 1 ? _q $end
$var reg 1 @ q $end
$upscope $end
$scope module DL2 $end
$var wire 1 > data $end
$var wire 1 A en $end
$var reg 1 B _q $end
$var reg 1 C q $end
$upscope $end
$upscope $end
$upscope $end
$upscope $end
$enddefinitions $end
#0
$dumpvars
xC
xB
1A
x@
x?
x>
x=
x<
x;
x:
x9
x8
17
x6
x5
x4
x3
x2
x1
x0
x/
x.
1-
x,
x+
x*
x)
x(
x'
0&
bx %
0$
0#
0"
bx !
$end
#5
1+
1)
0,
0*
1#
1&
0-
07
0A
#10
03
1.
1(
0/
0'
bx0 !
bx0 %
0#
0&
1-
17
1A
#15
15
12
06
04
1#
1&
0-
07
0A
#20
0=
18
11
09
00
bx00 !
bx00 %
0#
0&
1-
17
1A
#25
1?
1<
0@
0>
1#
1&
0-
07
0A
#30
1B
1;
0C
0:
b0 !
b0 %
0#
0&
1-
17
1A
#35
1#
1&
0-
07
0A
#40
0#
0&
1-
17
1A
1"
1$
#45
0+
0)
1,
1*
1#
1&
0-
07
0A
#50
13
0.
0(
1/
1'
b1 !
b1 %
0#
0&
1-
17
1A
0"
0$
#55
05
02
16
14
1+
1)
0,
0*
1#
1&
0-
07
0A
#60
03
1=
1.
1(
0/
0'
08
01
19
10
b10 !
b10 %
0#
0&
1-
17
1A
#65
0?
0<
1@
1>
15
12
06
04
1#
1&
0-
07
0A
#70
0=
18
11
09
00
0B
0;
1C
1:
b100 !
b100 %
0#
0&
1-
17
1A
1"
1$
#75
1?
1<
0@
0>
0+
0)
1,
1*
1#
1&
0-
07
0A
#80
13
0.
0(
1/
1'
1B
1;
0C
0:
b1 !
b1 %
0#
0&
1-
17
1A
#85
05
02
16
14
1#
1&
0-
07
0A
#90
1=
08
01
19
10
b11 !
b11 %
0#
0&
1-
17
1A
0"
0$
#95
0?
0<
1@
1>
1+
1)
0,
0*
1#
1&
0-
07
0A
#100
03
1.
1(
0/
0'
0B
0;
1C
1:
b110 !
b110 %
0#
0&
1-
17
1A
#105
15
12
06
04
1#
1&
0-
07
0A
#110
0=
18
11
09
00
b100 !
b100 %
0#
0&
1-
17
1A
#115
1?
1<
0@
0>
1#
1&
0-
07
0A
#120
1B
1;
0C
0:
b0 !
b0 %
0#
0&
1-
17
1A
#125
1#
1&
0-
07
0A
#130
0#
0&
1-
17
1A
#135
1#
1&
0-
07
0A
#140
0#
0&
1-
17
1A
#145
1#
1&
0-
07
0A
#150
0#
0&
1-
17
1A
#155
1#
1&
0-
07
0A
#160
0#
0&
1-
17
1A
#165
1#
1&
0-
07
0A
#170
0#
0&
1-
17
1A
#175
1#
1&
0-
07
0A
#180
0#
0&
1-
17
1A
#185
1#
1&
0-
07
0A
#190
0#
0&
1-
17
1A
#195
1#
1&
0-
07
0A
#200
0#
0&
1-
17
1A
#205
1#
1&
0-
07
0A
#210
0#
0&
1-
17
1A
#215
1#
1&
0-
07
0A
#220
0#
0&
1-
17
1A
#225
1#
1&
0-
07
0A
#230
0#
0&
1-
17
1A
#235
1#
1&
0-
07
0A
#240
0#
0&
1-
17
1A
#245
1#
1&
0-
07
0A
#250
0#
0&
1-
17
1A
#255
1#
1&
0-
07
0A
#260
0#
0&
1-
17
1A
#265
1#
1&
0-
07
0A
#270
0#
0&
1-
17
1A
#275
1#
1&
0-
07
0A
#280
0#
0&
1-
17
1A
#285
1#
1&
0-
07
0A
#290
0#
0&
1-
17
1A
#295
1#
1&
0-
07
0A
#300
0#
0&
1-
17
1A
#305
1#
1&
0-
07
0A
#310
0#
0&
1-
17
1A
#315
1#
1&
0-
07
0A
#320
0#
0&
1-
17
1A
#325
1#
1&
0-
07
0A
#330
0#
0&
1-
17
1A
#335
1#
1&
0-
07
0A
#340
0#
0&
1-
17
1A
#345
1#
1&
0-
07
0A
#350
0#
0&
1-
17
1A
#355
1#
1&
0-
07
0A
#360
0#
0&
1-
17
1A
#365
1#
1&
0-
07
0A
#370
0#
0&
1-
17
1A
#375
1#
1&
0-
07
0A
#380
0#
0&
1-
17
1A
#385
1#
1&
0-
07
0A
#390
0#
0&
1-
17
1A
#395
1#
1&
0-
07
0A
#400
0#
0&
1-
17
1A
#405
1#
1&
0-
07
0A
#410
0#
0&
1-
17
1A
#415
1#
1&
0-
07
0A
#420
0#
0&
1-
17
1A
#425
1#
1&
0-
07
0A
#430
0#
0&
1-
17
1A
#435
1#
1&
0-
07
0A
#440
0#
0&
1-
17
1A
#445
1#
1&
0-
07
0A
#450
0#
0&
1-
17
1A
#455
1#
1&
0-
07
0A
#460
0#
0&
1-
17
1A
#465
1#
1&
0-
07
0A
#470
0#
0&
1-
17
1A
#475
1#
1&
0-
07
0A
#480
0#
0&
1-
17
1A
#485
1#
1&
0-
07
0A
#490
0#
0&
1-
17
1A
#495
1#
1&
0-
07
0A
#500
0#
0&
1-
17
1A
#505
1#
1&
0-
07
0A
#510
0#
0&
1-
17
1A
#515
1#
1&
0-
07
0A
#520
0#
0&
1-
17
1A
#525
1#
1&
0-
07
0A
#530
0#
0&
1-
17
1A
#535
1#
1&
0-
07
0A
#540
0#
0&
1-
17
1A
#545
1#
1&
0-
07
0A
#550
0#
0&
1-
17
1A
#555
1#
1&
0-
07
0A
#560
0#
0&
1-
17
1A
#565
1#
1&
0-
07
0A
#570
0#
0&
1-
17
1A
#575
1#
1&
0-
07
0A
#580
0#
0&
1-
17
1A
#585
1#
1&
0-
07
0A
#590
0#
0&
1-
17
1A
#595
1#
1&
0-
07
0A
#600
0#
0&
1-
17
1A
#605
1#
1&
0-
07
0A
#610
0#
0&
1-
17
1A
#615
1#
1&
0-
07
0A
#620
0#
0&
1-
17
1A
#625
1#
1&
0-
07
0A
#630
0#
0&
1-
17
1A
#635
1#
1&
0-
07
0A
#640
0#
0&
1-
17
1A
#645
1#
1&
0-
07
0A
#650
0#
0&
1-
17
1A
#655
1#
1&
0-
07
0A
#660
0#
0&
1-
17
1A
#665
1#
1&
0-
07
0A
#670
0#
0&
1-
17
1A
#675
1#
1&
0-
07
0A
#680
0#
0&
1-
17
1A
#685
1#
1&
0-
07
0A
#690
0#
0&
1-
17
1A
#695
1#
1&
0-
07
0A
#700
0#
0&
1-
17
1A
