verilog/latch/wave.vcd
$date
	Sun May  3 17:07:45 2015
$end
$version
	Icarus Verilog
$end
$timescale
	1s
$end
$scope module shiftRgtest $end
$var wire 3 ! out [2:0] $end
$var reg 1 " Data $end
$var reg 1 # clk $end
$scope module uut $end
$var wire 1 $ Data $end
$var wire 3 % Result [2:0] $end
$var wire 1 & clk $end
$var wire 1 ' un1 $end
$var wire 1 ( un2 $end
$var wire 1 ) un3 $end
$scope module D1 $end
$var wire 1 * Q $end
$var wire 1 ' _Q $end
$var wire 1 + _q $end
$var wire 1 & clk $end
$var wire 1 $ data $end
$var wire 1 , q $end
$scope module DL1 $end
$var wire 1 $ data $end
$var wire 1 & en $end
$var reg 1 - _q $end
$var reg 1 . q $end
$upscope $end
$scope module DL2 $end
$var wire 1 , data $end
$var wire 1 / en $end
$var reg 1 0 _q $end
$var reg 1 1 q $end
$upscope $end
$upscope $end
$scope module D2 $end
$var wire 1 2 Q $end
$var wire 1 ( _Q $end
$var wire 1 3 _q $end
$var wire 1 & clk $end
$var wire 1 4 data $end
$var wire 1 5 q $end
$scope module DL1 $end
$var wire 1 4 data $end
$var wire 1 & en $end
$var reg 1 6 _q $end
$var reg 1 7 q $end
$upscope $end
$scope module DL2 $end
$var wire 1 5 data $end
$var wire 1 8 en $end
$var reg 1 9 _q $end
$var reg 1 : q $end
$upscope $end
$upscope $end
$scope module D3 $end
$var wire 1 ; Q $end
$var wire 1 ) _Q $end
$var wire 1 < _q $end
$var wire 1 & clk $end
$var wire 1 = data $end
$var wire 1 > q $end
$scope module DL1 $end
$var wire 1 = data $end
$var wire 1 & en $end
$var reg 1 ? _q $end
$var reg 1 @ q $end
$upscope $end
$scope module DL2 $end
$var wire 1 > data $end
$var wire 1 A en $end
$var reg 1 B _q $end
$var reg 1 C q $end
$upscope $end
$upscope $end
$upscope $end
$upscope $end
$enddefinitions $end
#0
$dumpvars
xC
xB
1A
x@
x?
x>
x=
x<
x;
x:
x9
18
x7
x6
x5
x4
x3
x2
x1
x0
1/
x.
x-
x,
x+
x*
x)
x(
x'
0&
bx %
1$
0#
1"
bx !
$end
#10
1.
1,
1#
1&
0/
08
0A
#20
14
11
1*
bx1 !
bx1 %
0#
0&
1/
18
1A
#30
17
15
0-
0+
1#
1&
0/
08
0A
#40
1=
00
0'
1:
12
bx11 !
bx11 %
0#
0&
1/
18
1A
#50
1@
1>
06
03
1#
1&
0/
08
0A
#60
09
0(
1C
1;
b111 !
b111 %
0#
0&
1/
18
1A
#70
0?
0<
1#
1&
0/
08
0A
#80
0B
0)
0#
0&
1/
18
1A
#90
1#
1&
0/
08
0A
#100
0#
0&
1/
18
1A
#110
1#
1&
0/
08
0A
#120
0#
0&
1/
18
1A
#130
1#
1&
0/
08
0A
#140
0#
0&
1/
18
1A
#150
1#
1&
0/
08
0A
#160
0#
0&
1/
18
1A
#170
1#
1&
0/
08
0A
#180
0#
0&
1/
18
1A
#190
1#
1&
0/
08
0A
#200
0#
0&
1/
18
1A
#210
1#
1&
0/
08
0A
#220
0#
0&
1/
18
1A
#230
1#
1&
0/
08
0A
#240
0#
0&
1/
18
1A
#250
1#
1&
0/
08
0A
#260
0#
0&
1/
18
1A
#270
1#
1&
0/
08
0A
#280
0#
0&
1/
18
1A
#290
1#
1&
0/
08
0A
#300
0#
0&
1/
18
1A
#310
1#
1&
0/
08
0A
#320
0#
0&
1/
18
1A
#330
1#
1&
0/
08
0A
#340
0#
0&
1/
18
1A
#350
1#
1&
0/
08
0A
#360
0#
0&
1/
18
1A
#370
1#
1&
0/
08
0A
#380
0#
0&
1/
18
1A
#390
1#
1&
0/
08
0A
#400
0#
0&
1/
18
1A
#410
1#
1&
0/
08
0A
#420
0#
0&
1/
18
1A
